-----BEGIN PGP SIGNATURE-----

iQIcBAABCgAGBQJjfTP0AAoJEOU9mJqeLUe/zCIP/3DG5HzzTEIpjXNJ+41dShVF
TZNhhCZaA+gYhpbQ/8HcZNhE0YfitZ6QTm5M4v9JgPhZgjXPexJ8OHsO8Xksodh6
PlpIw/RhKskHiE6RDPzs7Bd3ePkpmUgPWaHV+k61drfydKQUh3eBCJvmIg46WER3
e1yE8A3I3aKmm2BgDAIYd3huDsBCj7LmL/6tpVVOf4nvE1H/wspA7KwnU5M8kCbq
z4gXZdS1C86qxYu76VeV9c6Uo/pQkUGDBi1qxrkRmewKaUpP9dnfTIJIVR1NbN8V
LtT18SZiObc3EwxvSh4TIf9rOxUXv2qE8wzQCuJLV5qfNcfm/8HdpqZB+BdYNxC7
4Nt3PlqyHIAyUQlrT1PtUNpEAnI5Ml+5anYfi3HRswAg3l5/1/supDlpvDqUXnMq
OJXWeHo3Cp7e9IDwuWv5wXjROqARMf0+sJX+jhqToX1iusPyOXH2OjSunI/KJ7zg
+mS31rM88IR+34oTixzvckAwTGwOi1e8igt0E5ZzZEcKyJX6RtxgwFHPYOdylo1d
/JnJzd2VfMN9f4nG+YinuUvrfe3+4RvweE0r6xtLS61TfPpksSHPQR6cG4ql9xMS
Ph5XTWlUVPx1HoMd2IHaTyxKTEvRAN99vXid/a/+057RafDsEt2oudvu1ZTActAG
qji5Dsp4Fda5j74u+6bB
=Clvp
-----END PGP SIGNATURE-----
